{
"com.badlogic.gdx.graphics.g2d.BitmapFont": {
	"AlgerianInitialAmarilloNaranja": {
		"file": "AlgerianIniD.fnt"
	}
},
"com.badlogic.gdx.graphics.Color": {
	"AmarilloNaranja": {
		"r": 1,
		"g": 0.7137255,
		"b": 0,
		"a": 1
	},
	"RGBA_101_56_24_255": {
		"r": 0.39607844,
		"g": 0.21960784,
		"b": 0.09411765,
		"a": 1
	}
},
"com.badlogic.gdx.scenes.scene2d.ui.Skin$TintedDrawable": {
	"round-dark-gray": {
		"name": "round-white",
		"color": {
			"r": 0.22,
			"g": 0.22,
			"b": 0.22,
			"a": 1
		}
	},
	"round-light-gray": {
		"name": "round-white",
		"color": {
			"r": 0.86333334,
			"g": 0.86333334,
			"b": 0.86333334,
			"a": 1
		}
	},
	"round-gray-small": {
		"name": "round-white-small",
		"color": {
			"r": 0.4633333,
			"g": 0.4633333,
			"b": 0.4633333,
			"a": 1
		}
	},
	"round-black-small": {
		"name": "round-white-small",
		"color": {
			"r": 0,
			"g": 0,
			"b": 0,
			"a": 1
		}
	},
	"gray": {
		"name": "white",
		"color": {
			"r": 0.59,
			"g": 0.59,
			"b": 0.59,
			"a": 1
		}
	}
},
"com.badlogic.gdx.scenes.scene2d.ui.Button$ButtonStyle": {
	"default": {
		"up": "button_up",
		"down": "button_down",
		"over": "button_up"
	},
	"add": {
		"up": "add",
		"down": "add_down",
		"disabled": "add_disabled"
	},
	"remove": {
		"up": "remove",
		"down": "remove_down",
		"disabled": "remove_disabled"
	},
	"left": {
		"up": "left_up",
		"down": "left_down",
		"disabled": "left_disabled"
	},
	"right": {
		"up": "right_up",
		"down": "right_down",
		"disabled": "right_disabled"
	}
},
"com.badlogic.gdx.scenes.scene2d.ui.ImageButton$ImageButtonStyle": {
	"default": {
		"imageUp": "button_up",
		"imageDown": "button_down",
		"imageOver": "button_up",
		"imageDisabled": "button_disabled",
		"up": "round-gray",
		"down": "round-dark-gray",
		"over": "round-light-gray",
		"disabled": "button_disabled"
	},
	"toggle": {
		"up": "round-gray",
		"down": "round-dark-gray",
		"over": "round-light-gray",
		"checked": "round-dark-gray",
		"checkedOver": "round-light-gray"
	}
},
"com.badlogic.gdx.scenes.scene2d.ui.Label$LabelStyle": {
	"default": {
		"font": "AlgerianInitialAmarilloNaranja",
		"background": "empty"
	}
},
"com.badlogic.gdx.scenes.scene2d.ui.ProgressBar$ProgressBarStyle": {
	"default-horizontal": {
		"background": "progress-bar",
		"knobBefore": "progress-bar-fill"
	},
	"default-vertical": {
		"background": "progress-bar",
		"knobBefore": "progress-bar-fill-vert"
	}
},
"com.badlogic.gdx.scenes.scene2d.ui.ScrollPane$ScrollPaneStyle": {
	"default": {
		"background": "select_box_open",
		"hScroll": "round-black-small",
		"hScrollKnob": "round-gray-small",
		"vScroll": "round-black-small",
		"vScrollKnob": "round-gray-small"
	}
},
"com.badlogic.gdx.scenes.scene2d.ui.Slider$SliderStyle": {
	"default-horizontal": {
		"background": "slider-horizontal",
		"knob": "slider-knob"
	},
	"default-vertical": {
		"background": "slider-vertical",
		"knob": "slider-knob"
	}
},
"com.badlogic.gdx.scenes.scene2d.ui.SplitPane$SplitPaneStyle": {
	"default-horizontal": {
		"handle": "horizontal-split-pane"
	},
	"default-vertical": {
		"handle": "vertical-split-pane"
	}
},
"com.badlogic.gdx.scenes.scene2d.ui.TextButton$TextButtonStyle": {
	"default": {
		"font": "AlgerianInitialAmarilloNaranja",
		"fontColor": "RGBA_101_56_24_255",
		"up": "button_up",
		"down": "button_down",
		"disabled": "button_disabled",
		"pressedOffsetY": -16
	}
},
"com.badlogic.gdx.scenes.scene2d.ui.TextTooltip$TextTooltipStyle": {
	"default": {
		"label": "default",
		"background": "round-white"
	}
},
"com.badlogic.gdx.scenes.scene2d.ui.Touchpad$TouchpadStyle": {
	"default": {
		"background": "touchpad",
		"knob": "touchpad-knob"
	}
},
"com.badlogic.gdx.scenes.scene2d.ui.Tree$TreeStyle": {
	"default": {
		"plus": "plus",
		"minus": "minus"
	}
}
}