info face="Algerian Initials D Regular" size=12 bold=0 italic=0 charset="" unicode=1 stretchH=100 smooth=1 aa=2 padding=1,1,1,1 spacing=0,0
common lineHeight=33 base=26 scaleW=506 scaleH=51 pages=1 packed=0 alphaChnl=0 redChnl=0 greenChnl=0 blueChnl=0
page id=0 file="Algerian Initials D Regular.png"
chars count=45
char id=0     x=0    y=0    width=0    height=0    xoffset=-1   yoffset=26   xadvance=8    page=0    chnl=0
char id=32    x=0    y=0    width=0    height=0    xoffset=-1   yoffset=-1   xadvance=8    page=0    chnl=0
char id=33    x=192  y=2    width=9    height=20   xoffset=-1   yoffset=6    xadvance=9    page=0    chnl=0
char id=39    x=500  y=2    width=5    height=7    xoffset=-1   yoffset=6    xadvance=6    page=0    chnl=0
char id=44    x=492  y=2    width=6    height=9    xoffset=-1   yoffset=21   xadvance=7    page=0    chnl=0
char id=46    x=339  y=30   width=5    height=5    xoffset=0    yoffset=21   xadvance=7    page=0    chnl=0
char id=48    x=224  y=2    width=19   height=20   xoffset=-1   yoffset=6    xadvance=20   page=0    chnl=0
char id=49    x=413  y=2    width=19   height=20   xoffset=-1   yoffset=6    xadvance=20   page=0    chnl=0
char id=50    x=392  y=2    width=19   height=20   xoffset=-1   yoffset=6    xadvance=20   page=0    chnl=0
char id=51    x=371  y=2    width=19   height=20   xoffset=-1   yoffset=6    xadvance=20   page=0    chnl=0
char id=52    x=350  y=2    width=19   height=20   xoffset=-1   yoffset=6    xadvance=20   page=0    chnl=0
char id=53    x=329  y=2    width=19   height=20   xoffset=-1   yoffset=6    xadvance=20   page=0    chnl=0
char id=54    x=308  y=2    width=19   height=20   xoffset=-1   yoffset=6    xadvance=20   page=0    chnl=0
char id=55    x=287  y=2    width=19   height=20   xoffset=-1   yoffset=6    xadvance=20   page=0    chnl=0
char id=56    x=266  y=2    width=19   height=20   xoffset=-1   yoffset=6    xadvance=20   page=0    chnl=0
char id=57    x=245  y=2    width=19   height=20   xoffset=-1   yoffset=6    xadvance=20   page=0    chnl=0
char id=63    x=163  y=2    width=12   height=20   xoffset=0    yoffset=6    xadvance=13   page=0    chnl=0
char id=97    x=313  y=30   width=24   height=20   xoffset=-2   yoffset=6    xadvance=23   page=0    chnl=0
char id=98    x=21   y=30   width=19   height=20   xoffset=-1   yoffset=6    xadvance=20   page=0    chnl=0
char id=99    x=62   y=30   width=17   height=20   xoffset=0    yoffset=6    xadvance=18   page=0    chnl=0
char id=100   x=273  y=30   width=18   height=20   xoffset=-1   yoffset=6    xadvance=18   page=0    chnl=0
char id=101   x=141  y=2    width=20   height=20   xoffset=-2   yoffset=6    xadvance=18   page=0    chnl=0
char id=102   x=253  y=30   width=18   height=20   xoffset=-1   yoffset=6    xadvance=17   page=0    chnl=0
char id=103   x=231  y=30   width=20   height=20   xoffset=0    yoffset=6    xadvance=21   page=0    chnl=0
char id=104   x=209  y=30   width=20   height=20   xoffset=-1   yoffset=6    xadvance=19   page=0    chnl=0
char id=105   x=454  y=2    width=10   height=20   xoffset=-1   yoffset=6    xadvance=9    page=0    chnl=0
char id=106   x=191  y=30   width=16   height=20   xoffset=-2   yoffset=6    xadvance=15   page=0    chnl=0
char id=107   x=167  y=30   width=22   height=20   xoffset=-1   yoffset=6    xadvance=21   page=0    chnl=0
char id=108   x=147  y=30   width=18   height=20   xoffset=-1   yoffset=6    xadvance=16   page=0    chnl=0
char id=109   x=466  y=2    width=24   height=20   xoffset=-2   yoffset=6    xadvance=22   page=0    chnl=0
char id=110   x=0    y=30   width=19   height=20   xoffset=-2   yoffset=6    xadvance=18   page=0    chnl=0
char id=111   x=42   y=30   width=18   height=20   xoffset=0    yoffset=6    xadvance=19   page=0    chnl=0
char id=112   x=126  y=30   width=19   height=20   xoffset=-2   yoffset=6    xadvance=18   page=0    chnl=0
char id=113   x=85   y=2    width=20   height=23   xoffset=0    yoffset=6    xadvance=20   page=0    chnl=0
char id=114   x=107  y=2    width=21   height=23   xoffset=-1   yoffset=6    xadvance=20   page=0    chnl=0
char id=115   x=293  y=30   width=18   height=20   xoffset=-2   yoffset=6    xadvance=17   page=0    chnl=0
char id=116   x=203  y=2    width=19   height=20   xoffset=-2   yoffset=6    xadvance=17   page=0    chnl=0
char id=117   x=434  y=2    width=18   height=20   xoffset=-1   yoffset=6    xadvance=18   page=0    chnl=0
char id=118   x=60   y=2    width=23   height=25   xoffset=-2   yoffset=1    xadvance=19   page=0    chnl=0
char id=119   x=4    y=2    width=28   height=26   xoffset=-2   yoffset=0    xadvance=24   page=0    chnl=0
char id=120   x=81   y=30   width=22   height=20   xoffset=-2   yoffset=6    xadvance=21   page=0    chnl=0
char id=121   x=34   y=2    width=24   height=26   xoffset=-3   yoffset=0    xadvance=19   page=0    chnl=0
char id=122   x=105  y=30   width=19   height=20   xoffset=-1   yoffset=6    xadvance=19   page=0    chnl=0
char id=161   x=130  y=2    width=9    height=21   xoffset=-1   yoffset=10   xadvance=9    page=0    chnl=0
char id=191   x=177  y=2    width=13   height=20   xoffset=0    yoffset=10   xadvance=14   page=0    chnl=0
kernings count=0
