info face="AlgerianIniD_5" size=12 bold=0 italic=0 charset="" unicode=1 stretchH=100 smooth=1 aa=2 padding=1,1,1,1 spacing=0,0
common lineHeight=167 base=133 scaleW=512 scaleH=512 pages=2 packed=0 alphaChnl=0 redChnl=0 greenChnl=0 blueChnl=0
page id=0 file="AlgerianIniD_5_0.png"
page id=1 file="AlgerianIniD_5_1.png"
chars count=28
char id=0     x=0    y=0    width=0    height=0    xoffset=-1   yoffset=133  xadvance=38   page=1    chnl=0
char id=32    x=0    y=0    width=0    height=0    xoffset=-1   yoffset=-1   xadvance=38   page=0    chnl=0
char id=65    x=192  y=2    width=93   height=100  xoffset=-1   yoffset=33   xadvance=98   page=1    chnl=0
char id=66    x=285  y=104  width=93   height=100  xoffset=-1   yoffset=33   xadvance=98   page=0    chnl=0
char id=67    x=0    y=206  width=93   height=100  xoffset=-1   yoffset=33   xadvance=98   page=0    chnl=0
char id=68    x=2    y=2    width=93   height=100  xoffset=-1   yoffset=33   xadvance=98   page=1    chnl=0
char id=69    x=194  y=2    width=93   height=100  xoffset=-1   yoffset=33   xadvance=98   page=0    chnl=0
char id=70    x=380  y=308  width=93   height=100  xoffset=-1   yoffset=33   xadvance=98   page=0    chnl=0
char id=71    x=285  y=308  width=93   height=100  xoffset=-1   yoffset=33   xadvance=98   page=0    chnl=0
char id=72    x=190  y=308  width=93   height=100  xoffset=-1   yoffset=33   xadvance=98   page=0    chnl=0
char id=73    x=0    y=104  width=93   height=100  xoffset=-1   yoffset=33   xadvance=98   page=1    chnl=0
char id=74    x=95   y=308  width=93   height=100  xoffset=-1   yoffset=33   xadvance=98   page=0    chnl=0
char id=75    x=0    y=308  width=93   height=100  xoffset=-1   yoffset=33   xadvance=98   page=0    chnl=0
char id=76    x=380  y=206  width=93   height=100  xoffset=-1   yoffset=33   xadvance=98   page=0    chnl=0
char id=77    x=95   y=104  width=93   height=100  xoffset=-1   yoffset=33   xadvance=98   page=0    chnl=0
char id=78    x=190  y=104  width=93   height=100  xoffset=-1   yoffset=33   xadvance=98   page=0    chnl=0
char id=79    x=382  y=2    width=93   height=100  xoffset=-1   yoffset=33   xadvance=98   page=1    chnl=0
char id=80    x=287  y=2    width=93   height=100  xoffset=-1   yoffset=33   xadvance=98   page=1    chnl=0
char id=81    x=4    y=2    width=93   height=100  xoffset=-1   yoffset=33   xadvance=98   page=0    chnl=0
char id=82    x=289  y=2    width=93   height=100  xoffset=-1   yoffset=33   xadvance=98   page=0    chnl=0
char id=83    x=97   y=2    width=93   height=100  xoffset=-1   yoffset=33   xadvance=98   page=1    chnl=0
char id=84    x=384  y=2    width=93   height=100  xoffset=-1   yoffset=33   xadvance=98   page=0    chnl=0
char id=85    x=285  y=206  width=93   height=100  xoffset=-1   yoffset=33   xadvance=98   page=0    chnl=0
char id=86    x=380  y=104  width=93   height=100  xoffset=-1   yoffset=33   xadvance=98   page=0    chnl=0
char id=87    x=99   y=2    width=93   height=100  xoffset=-1   yoffset=33   xadvance=98   page=0    chnl=0
char id=88    x=95   y=206  width=93   height=100  xoffset=-1   yoffset=33   xadvance=98   page=0    chnl=0
char id=89    x=0    y=104  width=93   height=100  xoffset=-1   yoffset=33   xadvance=98   page=0    chnl=0
char id=90    x=190  y=206  width=93   height=100  xoffset=-1   yoffset=33   xadvance=98   page=0    chnl=0
kernings count=0
