info face="AlgerianIniD_2" size=12 bold=0 italic=0 charset="" unicode=1 stretchH=100 smooth=1 aa=2 padding=1,1,1,1 spacing=0,0
common lineHeight=89 base=71 scaleW=503 scaleH=181 pages=1 packed=0 alphaChnl=0 redChnl=0 greenChnl=0 blueChnl=0
page id=0 file="AlgerianIniD_2.png"
chars count=28
char id=0     x=0    y=0    width=0    height=0    xoffset=-1   yoffset=71   xadvance=20   page=0    chnl=0
char id=32    x=0    y=0    width=0    height=0    xoffset=-1   yoffset=-1   xadvance=20   page=0    chnl=0
char id=97    x=214  y=127  width=62   height=53   xoffset=-2   yoffset=18   xadvance=60   page=0    chnl=0
char id=98    x=0    y=71   width=48   height=54   xoffset=-1   yoffset=17   xadvance=51   page=0    chnl=0
char id=99    x=358  y=2    width=44   height=56   xoffset=1    yoffset=17   xadvance=47   page=0    chnl=0
char id=100   x=103  y=127  width=46   height=53   xoffset=0    yoffset=18   xadvance=49   page=0    chnl=0
char id=101   x=50   y=71   width=52   height=53   xoffset=-2   yoffset=18   xadvance=49   page=0    chnl=0
char id=102   x=54   y=127  width=47   height=53   xoffset=-1   yoffset=18   xadvance=44   page=0    chnl=0
char id=103   x=0    y=127  width=52   height=53   xoffset=1    yoffset=18   xadvance=55   page=0    chnl=0
char id=104   x=425  y=71   width=51   height=53   xoffset=-1   yoffset=18   xadvance=50   page=0    chnl=0
char id=105   x=478  y=71   width=24   height=53   xoffset=0    yoffset=18   xadvance=25   page=0    chnl=0
char id=106   x=454  y=2    width=41   height=55   xoffset=-3   yoffset=18   xadvance=41   page=0    chnl=0
char id=107   x=316  y=71   width=56   height=53   xoffset=0    yoffset=18   xadvance=54   page=0    chnl=0
char id=108   x=268  y=71   width=46   height=53   xoffset=0    yoffset=18   xadvance=44   page=0    chnl=0
char id=109   x=151  y=127  width=61   height=53   xoffset=-3   yoffset=18   xadvance=59   page=0    chnl=0
char id=110   x=374  y=71   width=49   height=53   xoffset=-2   yoffset=18   xadvance=48   page=0    chnl=0
char id=111   x=327  y=127  width=46   height=53   xoffset=1    yoffset=18   xadvance=50   page=0    chnl=0
char id=112   x=278  y=127  width=47   height=53   xoffset=-1   yoffset=18   xadvance=48   page=0    chnl=0
char id=113   x=202  y=2    width=52   height=62   xoffset=1    yoffset=17   xadvance=52   page=0    chnl=0
char id=114   x=256  y=2    width=53   height=60   xoffset=0    yoffset=17   xadvance=51   page=0    chnl=0
char id=115   x=311  y=2    width=45   height=56   xoffset=-2   yoffset=17   xadvance=45   page=0    chnl=0
char id=116   x=215  y=71   width=51   height=53   xoffset=-3   yoffset=18   xadvance=47   page=0    chnl=0
char id=117   x=404  y=2    width=48   height=55   xoffset=0    yoffset=18   xadvance=49   page=0    chnl=0
char id=118   x=141  y=2    width=59   height=66   xoffset=-3   yoffset=5    xadvance=50   page=0    chnl=0
char id=119   x=4    y=2    width=73   height=67   xoffset=-4   yoffset=4    xadvance=63   page=0    chnl=0
char id=120   x=104  y=71   width=58   height=53   xoffset=-3   yoffset=18   xadvance=56   page=0    chnl=0
char id=121   x=79   y=2    width=60   height=67   xoffset=-3   yoffset=4    xadvance=51   page=0    chnl=0
char id=122   x=164  y=71   width=49   height=53   xoffset=0    yoffset=18   xadvance=51   page=0    chnl=0
kernings count=0
